taylor - Taylor Swiftの楽曲データとggplot2補助関数の包括的リソース
…
remotes::install_github("wjakethompson/taylor")

## 例
3つの主要なデータセットがあります。最初は taylor_album_songs で、
これはテイラーの公式スタジオアルバムに収録されたすべての曲の歌詞と
Spotify APIからのオーディオ特徴を含みます。特に、アルバムから
別途リリースされたシングル（例：Only the Young、Christmas Tree Farm、
など）や、テイラー所有の代替版があるテイラー所有でないアルバム（例：
Fearless は Fearless (Taylor’s Version) に置き換えられています）は除外されています。
私たちはアーティストが自身の作品を所有することを支持します。

 r
taylor_album_songs
#> # A tibble: 240 × 29
#>    album_name   ep    album_release track_number track_name     artist featuring
#>                                             
#>  1 Taylor Swift FALSE 2006-10-24               1 Tim McGraw     Taylo…      
#>  2 Taylor Swift FALSE 2006-10-24               2 Picture To Bu… Taylo…      
#>  3 Taylor Swift FALSE 2006-10-24               3 Teardrops On … Taylo…      
#>  4 Taylor Swift FALSE 2006-10-24               4 A Place In Th… Taylo…      
#>  5 Taylor Swift FALSE 2006-10-24               5 Cold As You    Taylo…      
#>  6 Taylor Swift FALSE 2006-10-24               6 The Outside    Taylo…      
#>  7 Taylor Swift FALSE 2006-10-24               7 Tied Together… Taylo…      
#>  8 Taylor Swift FALSE 2006-10-24               8 Stay Beautiful Taylo…      
#>  9 Taylor Swift FALSE 2006-10-24               9 Should've Sai… Taylo…      
#> 10 Taylor Swift FALSE 2006-10-24              10 Mary's Song (… Taylo…      
#> # ℹ 230 more rows
#> # ℹ 22 more variables: bonus_track , promotional_release ,
#> #   single_release , track_release , danceability ,
#> #   energy , key , loudness , mode , speechiness ,
#> #   acousticness , instrumentalness , liveness , valence ,
#> #   tempo , time_signature , duration_ms , explicit ,
#> #   key_name , mode_name , key_mode , lyrics 

taylor_all_songs を使うと、テイラーの全ディスコグラフィにアクセスできます。これには
taylor_album_songs にあるすべての曲に加え、EP、個別のシングル、
および Taylor’s Version として再リリースされたアルバムのオリジナル版が含まれます。

 r
taylor_all_songs
#> # A tibble: 364 × 29
#>    album_name   ep    album_release track_number track_name     artist featuring
#>                                             
#>  1 Taylor Swift FALSE 2006-10-24               1 Tim McGraw     Taylo…      
#>  2 Taylor Swift FALSE 2006-10-24               2 Picture To Bu… Taylo…      
#>  3 Taylor Swift FALSE 2006-10-24               3 Teardrops On … Taylo…      
#>  4 Taylor Swift FALSE 2006-10-24               4 A Place In Th… Taylo…      
#>  5 Taylor Swift FALSE 2006-10-24               5 Cold As You    Taylo…      
#>  6 Taylor Swift FALSE 2006-10-24               6 The Outside    Taylo…      
#>  7 Taylor Swift FALSE 2006-10-24               7 Tied Together… Taylo…      
#>  8 Taylor Swift FALSE 2006-10-24               8 Stay Beautiful Taylo…      
#>  9 Taylor Swift FALSE 2006-10-24               9 Should've Sai… Taylo…      
#> 10 Taylor Swift FALSE 2006-10-24              10 Mary's Song (… Taylo…      
#> # ℹ 354 more rows
#> # ℹ 22 more variables: bonus_track , promotional_release ,
#> #   single_release , track_release , danceability ,
#> #   energy , key , loudness , mode , speechiness ,
#> #   acousticness , instrumentalness , liveness , valence ,
#> #   tempo , time_signature , duration_ms , explicit ,
#> #   key_name , mode_name , key_mode , lyrics 
…
