taylor - Une ressource complète pour les données sur les chansons de Taylor Swift, et des fonctions d’aide pour ggplot2.
…
remotes::install_github("wjakethompson/taylor")

Exemple

Il y a trois ensembles de données principaux. Le premier est taylor_album_songs, qui
comprend les paroles et les caractéristiques audio issues de l'API Spotify pour toutes les chansons des
albums officiels en studio de Taylor. Notamment, cela exclut les singles sortis
séparément d'un album (par exemple, Only the Young, Christmas Tree Farm,
etc.), ainsi que les albums non détenus par Taylor qui ont une alternative détenue par Taylor
(par exemple, Fearless est exclu au profit de *Fearless (Taylor’s
Version)*). Nous soutenons les artistes dans la propriété de leur œuvre.

 r
taylor_album_songs
#> # A tibble: 240 × 29
#>    album_name   ep    album_release track_number track_name     artist featuring
#>                                             
#>  1 Taylor Swift FALSE 2006-10-24               1 Tim McGraw     Taylo…      
#>  2 Taylor Swift FALSE 2006-10-24               2 Picture To Bu… Taylo…      
#>  3 Taylor Swift FALSE 2006-10-24               3 Teardrops On … Taylo…      
#>  4 Taylor Swift FALSE 2006-10-24               4 A Place In Th… Taylo…      
#>  5 Taylor Swift FALSE 2006-10-24               5 Cold As You    Taylo…      
#>  6 Taylor Swift FALSE 2006-10-24               6 The Outside    Taylo…      
#>  7 Taylor Swift FALSE 2006-10-24               7 Tied Together… Taylo…      
#>  8 Taylor Swift FALSE 2006-10-24               8 Stay Beautiful Taylo…      
#>  9 Taylor Swift FALSE 2006-10-24               9 Should've Sai… Taylo…      
#> 10 Taylor Swift FALSE 2006-10-24              10 Mary's Song (… Taylo…      
#> # ℹ 230 more rows
#> # ℹ 22 more variables: bonus_track , promotional_release ,
#> #   single_release , track_release , danceability ,
#> #   energy , key , loudness , mode , speechiness ,
#> #   acousticness , instrumentalness , liveness , valence ,
#> #   tempo , time_signature , duration_ms , explicit ,
#> #   key_name , mode_name , key_mode , lyrics 

Vous pouvez accéder à toute la discographie de Taylor avec taylor_all_songs. Cela
comprend toutes les chansons dans taylor_album_songs plus les EP, les singles individuels,
et les versions originales des albums qui ont été réédités
en tant que Taylor’s Version.

 r
taylor_all_songs
#> # A tibble: 364 × 29
#>    album_name   ep    album_release track_number track_name     artist featuring
#>                                             
#>  1 Taylor Swift FALSE 2006-10-24               1 Tim McGraw     Taylo…      
#>  2 Taylor Swift FALSE 2006-10-24               2 Picture To Bu… Taylo…      
#>  3 Taylor Swift FALSE 2006-10-24               3 Teardrops On … Taylo…      
#>  4 Taylor Swift FALSE 2006-10-24               4 A Place In Th… Taylo…      
#>  5 Taylor Swift FALSE 2006-10-24               5 Cold As You    Taylo…      
#>  6 Taylor Swift FALSE 2006-10-24               6 The Outside    Taylo…      
#>  7 Taylor Swift FALSE 2006-10-24               7 Tied Together… Taylo…      
#>  8 Taylor Swift FALSE 2006-10-24               8 Stay Beautiful Taylo…      
#>  9 Taylor Swift FALSE 2006-10-24               9 Should've Sai… Taylo…      
#> 10 Taylor Swift FALSE 2006-10-24              10 Mary's Song (… Taylo…      
#> # ℹ 354 more rows
#> # ℹ 22 more variables: bonus_track , promotional_release ,
#> #   single_release , track_release , danceability ,
#> #   energy , key , loudness , mode , speechiness ,
#> #   acousticness , instrumentalness , liveness , valence ,
#> #   tempo , time_signature , duration_ms , explicit ,
#> #   key_name , mode_name , key_mode , lyrics 
…
