taylor - 泰勒·斯威夫特歌曲数据的综合资源及 ggplot2 辅助函数集
…
remotes::install_github("wjakethompson/taylor")

示例

有三个主要数据集。第一个是 taylor_album_songs，它
包含了所有泰勒官方录音室专辑中歌曲的歌词和来自Spotify API的音频特征。
值得注意的是，这不包括单独发行的单曲
（例如，Only the Young、Christmas Tree Farm，
等），以及有泰勒拥有替代版本的非泰勒拥有的专辑
（例如，Fearless 被排除，优先采用 *Fearless (Taylor’s
Version)*）。我们支持艺术家拥有他们的作品。

 r
taylor_album_songs
#> # A tibble: 240 × 29
#>    album_name   ep    album_release track_number track_name     artist featuring
#>                                             
#>  1 Taylor Swift FALSE 2006-10-24               1 Tim McGraw     Taylo…      
#>  2 Taylor Swift FALSE 2006-10-24               2 Picture To Bu… Taylo…      
#>  3 Taylor Swift FALSE 2006-10-24               3 Teardrops On … Taylo…      
#>  4 Taylor Swift FALSE 2006-10-24               4 A Place In Th… Taylo…      
#>  5 Taylor Swift FALSE 2006-10-24               5 Cold As You    Taylo…      
#>  6 Taylor Swift FALSE 2006-10-24               6 The Outside    Taylo…      
#>  7 Taylor Swift FALSE 2006-10-24               7 Tied Together… Taylo…      
#>  8 Taylor Swift FALSE 2006-10-24               8 Stay Beautiful Taylo…      
#>  9 Taylor Swift FALSE 2006-10-24               9 Should've Sai… Taylo…      
#> 10 Taylor Swift FALSE 2006-10-24              10 Mary's Song (… Taylo…      
#> # ℹ 230 more rows
#> # ℹ 22 more variables: bonus_track , promotional_release ,
#> #   single_release , track_release , danceability ,
#> #   energy , key , loudness , mode , speechiness ,
#> #   acousticness , instrumentalness , liveness , valence ,
#> #   tempo , time_signature , duration_ms , explicit ,
#> #   key_name , mode_name , key_mode , lyrics 

你可以使用 taylor_all_songs 访问泰勒的全部曲目。  
这包括 taylor_album_songs 中的所有歌曲，以及 EP、单曲，  
以及已重新发行为 Taylor’s Version 的专辑原版。

 r
taylor_all_songs
#> # A tibble: 364 × 29
#>    album_name   ep    album_release track_number track_name     artist featuring
#>                                             
#>  1 Taylor Swift FALSE 2006-10-24               1 Tim McGraw     Taylo…      
#>  2 Taylor Swift FALSE 2006-10-24               2 Picture To Bu… Taylo…      
#>  3 Taylor Swift FALSE 2006-10-24               3 Teardrops On … Taylo…      
#>  4 Taylor Swift FALSE 2006-10-24               4 A Place In Th… Taylo…      
#>  5 Taylor Swift FALSE 2006-10-24               5 Cold As You    Taylo…      
#>  6 Taylor Swift FALSE 2006-10-24               6 The Outside    Taylo…      
#>  7 Taylor Swift FALSE 2006-10-24               7 Tied Together… Taylo…      
#>  8 Taylor Swift FALSE 2006-10-24               8 Stay Beautiful Taylo…      
#>  9 Taylor Swift FALSE 2006-10-24               9 Should've Sai… Taylo…      
#> 10 Taylor Swift FALSE 2006-10-24              10 Mary's Song (… Taylo…      
#> # ℹ 354 more rows
#> # ℹ 22 more variables: bonus_track , promotional_release ,
#> #   single_release , track_release , danceability ,
#> #   energy , key , loudness , mode , speechiness ,
#> #   acousticness , instrumentalness , liveness , valence ,
#> #   tempo , time_signature , duration_ms , explicit ,
#> #   key_name , mode_name , key_mode , lyrics 
…
